<?xml version="1.0" encoding="UTF-8"?>
<svg viewBox="0 0 15 19" version="1.1" xmlns="http://www.w3.org/2000/svg" xmlns:xlink="http://www.w3.org/1999/xlink">
    <g id="SYMBOLES" stroke="none" stroke-width="1" fill="none" fill-rule="evenodd">
        <g id="menu/categories/cat1" transform="translate(-21.000000, -15.000000)" fill="currentcolor">
            <g id="Group-14">
                <g id="admin-user" transform="translate(21.000000, 15.000000)">
                    <g id="man-user">
                        <path d="M7.20093009,9.29224857 C9.29210168,9.29224857 10.9874908,7.21212857 10.9874908,4.64615143 C10.9874908,2.08012 10.4308697,0 7.20093009,0 C3.97099051,0 3.41426189,2.08012 3.41426189,4.64615143 C3.41426189,7.21212857 5.10965102,9.29224857 7.20093009,9.29224857 Z" id="Shape" fill-rule="nonzero"></path>
                        <path d="M0.0520624541,16.5853151 C0.0486338827,16.0416199 0.0452053113,16.4321297 0.0520624541,16.5853151 L0.0520624541,16.5853151 Z" id="Shape" fill-rule="nonzero"></path>
                        <path d="M14.3526896,16.6457999 C14.3635468,16.561589 14.3564039,16.0615537 14.3526896,16.6457999 L14.3526896,16.6457999 Z" id="Shape" fill-rule="nonzero"></path>
                        <path d="M14.3446289,16.1986943 C14.2745004,11.7287 13.6965989,10.4549943 9.27431431,9.64874286 C9.27431431,9.64874286 8.65181002,10.4500543 7.20087635,10.4500543 C5.74994267,10.4500543 5.12733091,9.64874286 5.12733091,9.64874286 C0.753303268,10.4462 0.140256922,11.7010143 0.0596494955,16.05348 C0.0530396865,16.4088886 0.0499766043,16.4275629 0.0487943621,16.3863057 C0.0490630535,16.4636086 0.0493854832,16.6065971 0.0493854832,16.8559314 C0.0493854832,16.8559314 1.10222595,19 7.20087635,19 C13.2994193,19 14.3523672,16.8559314 14.3523672,16.8559314 C14.3523672,16.6957343 14.3524747,16.58434 14.3526359,16.5085571 C14.3514537,16.5340714 14.3490892,16.4846171 14.3446289,16.1986943 Z" id="Shape" fill-rule="nonzero"></path>
                    </g>
                </g>
            </g>
        </g>
    </g>
</svg>
