<?xml version="1.0" encoding="UTF-8"?>
<svg width="20px" height="15px" viewBox="0 0 20 15" version="1.1" xmlns="http://www.w3.org/2000/svg" xmlns:xlink="http://www.w3.org/1999/xlink">
    <!-- Generator: Sketch 44.1 (41455) - http://www.bohemiancoding.com/sketch -->
    <title>Shape</title>
    <desc>Created with Sketch.</desc>
    <defs></defs>
    <g id="Validé" stroke="none" stroke-width="1" fill="none" fill-rule="evenodd">
        <g id="Documents-/-Plan-Copy" transform="translate(-679.000000, -405.000000)" stroke="#FFFFFF" fill-rule="nonzero" fill="#FFFFFF">
            <g id="Sections" transform="translate(376.000000, -4.000000)">
                <g id="Group-15" transform="translate(294.000000, 0.000000)">
                    <path d="M21.9278125,410.633983 C21.6865,410.378392 21.284875,410.378392 21.035125,410.633983 C20.7938125,410.880939 20.7938125,411.291957 21.035125,411.538338 L25.5615625,416.170637 L10.6249375,416.170637 C10.27675,416.171212 10,416.454435 10,416.810765 C10,417.167096 10.27675,417.459529 10.6249375,417.459529 L25.5615625,417.459529 L21.035125,422.083193 C20.7938125,422.338784 20.7938125,422.750378 21.035125,422.996758 C21.284875,423.252349 21.6870625,423.252349 21.9278125,422.996758 L27.5258125,417.267836 C27.7755625,417.02088 27.7755625,416.609862 27.5258125,416.363481 L21.9278125,410.633983 Z" id="Shape"></path>
                </g>
            </g>
        </g>
    </g>
</svg>