<svg xmlns="http://www.w3.org/2000/svg" viewBox="0 0 48 60">
  <g fill="none" fill-rule="evenodd">
    <path fill="#000" fill-rule="nonzero" d="M32.914,0 L0.5,0 L0.5,60 L47.5,60 L47.5,14.586 L32.914,0 Z M33.5,3.414 L44.086,14 L33.5,14 L33.5,3.414 Z M2.5,58 L2.5,2 L31.5,2 L31.5,16 L45.5,16 L45.5,58 L2.5,58 Z"/>
    <path fill="#000" fill-rule="nonzero" d="M39.8829064,35.90932 L34.9690225,28.7223902 C34.8423942,28.5369006 34.6312599,28.4260333 34.4052359,28.4260333 L26.7349169,28.4260333 L26.7349169,25.6735385 C26.7349169,25.3015902 26.4300685,25 26.0540366,25 L8.68081494,25 C8.30484836,24.9999354 8,25.3015902 8,25.6735385 L8,44.7193967 C8,45.091345 8.30484836,45.3929997 8.68081494,45.3929997 L13.5664866,45.3929997 C13.9025512,47.4355818 15.6974863,49 17.855588,49 C20.0134285,49 21.8083637,47.4355818 22.1444283,45.3929997 L25.9955878,45.3929997 L26.0541019,45.3929997 L28.3683503,45.3929997 C28.7044149,47.4355818 30.4994153,49 32.6571905,49 C34.8152922,49 36.6102926,47.4355818 36.9463573,45.3929997 L39.3191198,45.3929997 C39.6950863,45.3929997 40,45.091345 40,44.7193967 L40,36.2866307 C39.9999347,36.1521169 39.9593797,36.0205104 39.8829064,35.90932 Z M17.8556534,47.6527939 C16.2101383,47.6527939 14.871039,46.3280068 14.871039,44.7000143 C14.871039,43.0719572 16.2101383,41.7475577 17.8556534,41.7475577 C19.501299,41.7475577 20.8400064,43.0720218 20.8400064,44.7000143 C20.8400064,46.3280068 19.5012337,47.6527939 17.8556534,47.6527939 Z M25.3732217,44.0458582 L22.1514813,44.0458582 C21.8320044,41.9845398 20.0272081,40.4004162 17.8556534,40.4004162 C15.6838374,40.4004162 13.8789758,41.9845398 13.5595642,44.0458582 L9.36169518,44.0458582 L9.36169518,26.3470769 L25.3732217,26.3470769 L25.3732217,44.0458582 Z M26.676468,29.7731748 L34.0438326,29.7731748 L38.0365754,35.6130277 L26.676468,35.6130277 L26.676468,29.7731748 Z M32.6571905,47.6527939 C31.0116102,47.6527939 29.6728374,46.3280068 29.6728374,44.7000143 C29.6728374,43.0719572 31.0116102,41.7475577 32.6571905,41.7475577 C34.3027708,41.7475577 35.6418701,43.0720218 35.6418701,44.7000143 C35.6418701,46.3280068 34.3027708,47.6527939 32.6571905,47.6527939 Z M38.6382395,44.0458582 L36.953345,44.0458582 C36.6338681,41.9845398 34.8289412,40.4004162 32.6571905,40.4004162 C30.485701,40.4004162 28.6808394,41.9845398 28.3613625,44.0458582 L26.676468,44.0458582 L26.676468,36.9601692 L38.6382395,36.9601692 L38.6382395,44.0458582 Z"/>
  </g>
</svg>
