<?xml version="1.0" encoding="iso-8859-1"?>
<svg version="1.1" id="Capa_1" xmlns="http://www.w3.org/2000/svg" xmlns:xlink="http://www.w3.org/1999/xlink" x="0px" y="0px"
	 viewBox="0 0 50 50" style="enable-background:new 0 0 50 50;" xml:space="preserve" fill="currentcolor">
<g>
	<rect y="3" width="50" height="2"/>
	<rect y="17" width="50" height="2"/>
	<rect y="31" width="50" height="2"/>
	<rect y="45" width="50" height="2"/>
</g>
</svg>
